{
    "prepare_queue": {
        "installed": [],
        "uninstalled": []
    },
    "config_munge": {
        "files": {}
    },
    "installed_plugins": {
        "com.cordova.plugins.sms": {
            "PACKAGE_NAME": "com.fixa.pushbots"
        },
        "cordova-plugin-camera": {
            "PACKAGE_NAME": "com.fixa.pushbots"
        },
        "cordova-plugin-dialogs": {
            "PACKAGE_NAME": "com.fixa.pushbots"
        },
        "cordova-plugin-email-composer": {
            "PACKAGE_NAME": "com.fixa.pushbots"
        },
        "cordova-plugin-file": {
            "PACKAGE_NAME": "com.fixa.pushbots"
        },
        "cordova-plugin-file-transfer": {
            "PACKAGE_NAME": "com.fixa.pushbots"
        },
        "cordova-plugin-geolocation": {
            "PACKAGE_NAME": "com.fixa.pushbots"
        },
        "cordova-plugin-inappbrowser": {
            "PACKAGE_NAME": "com.fixa.pushbots"
        },
        "cordova-plugin-media-capture": {
            "PACKAGE_NAME": "com.fixa.pushbots"
        },
        "ionic-plugin-keyboard": {
            "PACKAGE_NAME": "com.fixa.pushbots"
        },
        "pushbots-cordova-plugin": {
            "PACKAGE_NAME": "com.fixa.pushbots"
        },
        "uk.co.workingedge.phonegap.plugin.launchnavigator": {
            "PACKAGE_NAME": "com.fixa.pushbots"
        }
    },
    "dependent_plugins": {
        "cordova-plugin-android-support-v4": {
            "PACKAGE_NAME": "com.fixa.pushbots"
        },
        "cordova-plugin-compat": {
            "PACKAGE_NAME": "com.fixa.pushbots"
        },
        "org.apache.cordova.device": {
            "PACKAGE_NAME": "com.fixa.pushbots"
        },
        "de.appplant.cordova.plugin.background-mode": {
            "PACKAGE_NAME": "com.fixa.pushbots"
        },
        "de.appplant.cordova.plugin.local-notification": {
            "PACKAGE_NAME": "com.fixa.pushbots"
        },
        "nl.x-services.plugins.actionsheet": {
            "PACKAGE_NAME": "com.fixa.pushbots"
        },
        "org.apache.cordova.console": {
            "PACKAGE_NAME": "com.fixa.pushbots"
        },
        "org.apache.cordova.splashscreen": {
            "PACKAGE_NAME": "com.fixa.pushbots"
        },
        "org.apache.cordova.vibration": {
            "PACKAGE_NAME": "com.fixa.pushbots"
        }
    }
}